…
Now we trained our model. Let's compute predictions from the model using new data set (i.e, test data): 

```r
auto_preds2 <- auto_fit2 %>%
  predict(new_data = auto_test)
```

Look at the components of `auto_preds` object: 

```r
auto_preds2
```

```
## # A tibble: 96 x 1
##    .pred
##    <dbl>
##  1  13.5
##  2  14.7
##  3  14.3
##  4  24.9
##  5  12.9
##  6  14.4
##  7  30.3
##  8  33.3
##  9  35.3
## 10  24.9
## # ... with 86 more rows
```
…
The `tune::collect_predictions()` function creates a tibble containing predictions and actual values: 

```r
lm_last_fit %>% 
  collect_predictions()
```

```
## # A tibble: 96 x 5
##    id               .pred  .row   mpg .config             
##    <chr>            <dbl> <int> <dbl> <chr>               
##  1 train/test split  13.5     2    15 Preprocessor1_Model1
##  2 train/test split  14.7     3    18 Preprocessor1_Model1
##  3 train/test split  14.3     9    14 Preprocessor1_Model1
##  4 train/test split  24.9    25    21 Preprocessor1_Model1
##  5 train/test split  12.9    27    10 Preprocessor1_Model1
##  6 train/test split  14.4    40    14 Preprocessor1_Model1
##  7 train/test split  30.3    51    30 Preprocessor1_Model1
##  8 train/test split  33.3    55    27 Preprocessor1_Model1
##  9 train/test split  35.3    59    23 Preprocessor1_Model1
## 10 train/test split  24.9    60    20 Preprocessor1_Model1
## # ... with 86 more rows
```
…
