…
We use `dplyr::arrange()` to rearrange the rows of data. 

Example: Order year in ascending, countries in alphabetical order: 

```r
arrange(gapminder, year, country) 
```

```
## # A tibble: 1,704 x 6
##    country     continent  year lifeExp      pop gdpPercap
##    <fct>       <fct>     <int>   <dbl>    <int>     <dbl>
##  1 Afghanistan Asia       1952    28.8  8425333      779.
##  2 Albania     Europe     1952    55.2  1282697     1601.
##  3 Algeria     Africa     1952    43.1  9279525     2449.
##  4 Angola      Africa     1952    30.0  4232095     3521.
##  5 Argentina   Americas   1952    62.5 17876956     5911.
##  6 Australia   Oceania    1952    69.1  8691212    10040.
##  7 Austria     Europe     1952    66.8  6927772     6137.
##  8 Bahrain     Asia       1952    50.9   120447     9867.
##  9 Bangladesh  Asia       1952    37.5 46886859      684.
## 10 Belgium     Europe     1952    68    8730405     8343.
## # ... with 1,694 more rows
```
It does not change the data set, just orders it. We need to be careful when we have time series data. 

Example: First order countries and then years in ascending order:  

```r
arrange(gapminder, country, year) 
```

```
## # A tibble: 1,704 x 6
##    country     continent  year lifeExp      pop gdpPercap
##    <fct>       <fct>     <int>   <dbl>    <int>     <dbl>
##  1 Afghanistan Asia       1952    28.8  8425333      779.
##  2 Afghanistan Asia       1957    30.3  9240934      821.
##  3 Afghanistan Asia       1962    32.0 10267083      853.
##  4 Afghanistan Asia       1967    34.0 11537966      836.
##  5 Afghanistan Asia       1972    36.1 13079460      740.
##  6 Afghanistan Asia       1977    38.4 14880372      786.
##  7 Afghanistan Asia       1982    39.9 12881816      978.
##  8 Afghanistan Asia       1987    40.8 13867957      852.
##  9 Afghanistan Asia       1992    41.7 16317921      649.
## 10 Afghanistan Asia       1997    41.8 22227415      635.
## # ... with 1,694 more rows
```
…
`filter()` and `arrange()` can be used together. For example, 

```r
gapminder %>% 
  filter(year==2007, continent=="Americas") %>% 
  arrange(lifeExp) 
```

```
## # A tibble: 25 x 6
##    country             continent  year lifeExp       pop gdpPercap
##    <fct>               <fct>     <int>   <dbl>     <int>     <dbl>
##  1 Haiti               Americas   2007    60.9   8502814     1202.
##  2 Bolivia             Americas   2007    65.6   9119152     3822.
##  3 Trinidad and Tobago Americas   2007    69.8   1056608    18009.
##  4 Honduras            Americas   2007    70.2   7483763     3548.
##  5 Guatemala           Americas   2007    70.3  12572928     5186.
##  6 Peru                Americas   2007    71.4  28674757     7409.
##  7 Paraguay            Americas   2007    71.8   6667147     4173.
##  8 El Salvador         Americas   2007    71.9   6939688     5728.
##  9 Dominican Republic  Americas   2007    72.2   9319622     6025.
## 10 Brazil              Americas   2007    72.4 190010647     9066.
## # ... with 15 more rows
```

Example: Life expectancy in Europe in 2007 in descending order: 

```r
gapminder %>% 
  filter(year==2007, continent=="Europe") %>% 
  arrange(desc(lifeExp)) 
```

```
## # A tibble: 30 x 6
##    country     continent  year lifeExp      pop gdpPercap
##    <fct>       <fct>     <int>   <dbl>    <int>     <dbl>
##  1 Iceland     Europe     2007    81.8   301931    36181.
##  2 Switzerland Europe     2007    81.7  7554661    37506.
##  3 Spain       Europe     2007    80.9 40448191    28821.
##  4 Sweden      Europe     2007    80.9  9031088    33860.
##  5 France      Europe     2007    80.7 61083916    30470.
##  6 Italy       Europe     2007    80.5 58147733    28570.
##  7 Norway      Europe     2007    80.2  4627926    49357.
##  8 Austria     Europe     2007    79.8  8199783    36126.
##  9 Netherlands Europe     2007    79.8 16570613    36798.
## 10 Greece      Europe     2007    79.5 10706290    27538.
## # ... with 20 more rows
```

## `group_by()`

This function is useful to group variables. It does not change the data. `group_by()` is especially useful together with summarize()`. 

```r
gapminder %>%  
  group_by(continent, year)  
```

```
## # A tibble: 1,704 x 6
## # Groups:   continent, year [60]
##    country     continent  year lifeExp      pop gdpPercap
##    <fct>       <fct>     <int>   <dbl>    <int>     <dbl>
##  1 Afghanistan Asia       1952    28.8  8425333      779.
##  2 Afghanistan Asia       1957    30.3  9240934      821.
##  3 Afghanistan Asia       1962    32.0 10267083      853.
##  4 Afghanistan Asia       1967    34.0 11537966      836.
##  5 Afghanistan Asia       1972    36.1 13079460      740.
##  6 Afghanistan Asia       1977    38.4 14880372      786.
##  7 Afghanistan Asia       1982    39.9 12881816      978.
##  8 Afghanistan Asia       1987    40.8 13867957      852.
##  9 Afghanistan Asia       1992    41.7 16317921      649.
## 10 Afghanistan Asia       1997    41.8 22227415      635.
## # ... with 1,694 more rows
```
…
**Example**: Using `mutate()` and  `group_by()` together. For each country, create a new variable that shows the ratio of GDP per capita to the initial year 1952. The new variable will be 1 in 1952 and equal 1+growth rate with respect to the initial year..   

```r
gapminder %>%  
  group_by(country) %>%
  select(country, year, gdpPercap) %>% 
  mutate(gdppc_to_first = gdpPercap/first(gdpPercap))
```

```
## # A tibble: 1,704 x 4
## # Groups:   country [142]
##    country      year gdpPercap gdppc_to_first
##    <fct>       <int>     <dbl>          <dbl>
##  1 Afghanistan  1952      779.          1    
##  2 Afghanistan  1957      821.          1.05 
##  3 Afghanistan  1962      853.          1.09 
##  4 Afghanistan  1967      836.          1.07 
##  5 Afghanistan  1972      740.          0.949
##  6 Afghanistan  1977      786.          1.01 
##  7 Afghanistan  1982      978.          1.25 
##  8 Afghanistan  1987      852.          1.09 
##  9 Afghanistan  1992      649.          0.833
## 10 Afghanistan  1997      635.          0.815
## # ... with 1,694 more rows
```


**Example**: Now create a new variable for the year-to-year growth rate in GDP per capita as a percentage.

```r
gapminder %>%  
  group_by(country) %>%
  select(country, year, gdpPercap) %>% 
  mutate(gdppc_growth = 100*(gdpPercap-lag(gdpPercap))/lag(gdpPercap))
```

```
## # A tibble: 1,704 x 4
## # Groups:   country [142]
##    country      year gdpPercap gdppc_growth
##    <fct>       <int>     <dbl>        <dbl>
##  1 Afghanistan  1952      779.        NA   
##  2 Afghanistan  1957      821.         5.31
##  3 Afghanistan  1962      853.         3.93
##  4 Afghanistan  1967      836.        -1.98
##  5 Afghanistan  1972      740.       -11.5 
##  6 Afghanistan  1977      786.         6.23
##  7 Afghanistan  1982      978.        24.4 
##  8 Afghanistan  1987      852.       -12.8 
##  9 Afghanistan  1992      649.       -23.8 
## 10 Afghanistan  1997      635.        -2.16
## # ... with 1,694 more rows
```

In the example above, the `lag()` function takes the first lag (value in the previous year). We can also add the lag explicitly as a new variable:

```r
gapminder %>%  
  group_by(country) %>%
  select(country, year, gdpPercap) %>% 
  mutate(lag_gdppc = lag(gdpPercap, 1, order_by = year), 
         gdppc_growth = 100*(gdpPercap-lag_gdppc)/lag_gdppc)
```

```
## # A tibble: 1,704 x 5
## # Groups:   country [142]
##    country      year gdpPercap lag_gdppc gdppc_growth
##    <fct>       <int>     <dbl>     <dbl>        <dbl>
##  1 Afghanistan  1952      779.       NA         NA   
##  2 Afghanistan  1957      821.      779.         5.31
##  3 Afghanistan  1962      853.      821.         3.93
##  4 Afghanistan  1967      836.      853.        -1.98
##  5 Afghanistan  1972      740.      836.       -11.5 
##  6 Afghanistan  1977      786.      740.         6.23
##  7 Afghanistan  1982      978.      786.        24.4 
##  8 Afghanistan  1987      852.      978.       -12.8 
##  9 Afghanistan  1992      649.      852.       -23.8 
## 10 Afghanistan  1997      635.      649.        -2.16
## # ... with 1,694 more rows
```



Back to the usefulness of the  **pipe** operator. Try to do the previous task without the pipe: 

```r
mutate(select(group_by(gapminder,country), country, year, gdpPercap), gdppc_growth = 100*(gdpPercap-lag(gdpPercap))/lag(gdpPercap))
```

```
## # A tibble: 1,704 x 4
## # Groups:   country [142]
##    country      year gdpPercap gdppc_growth
##    <fct>       <int>     <dbl>        <dbl>
##  1 Afghanistan  1952      779.        NA   
##  2 Afghanistan  1957      821.         5.31
##  3 Afghanistan  1962      853.         3.93
##  4 Afghanistan  1967      836.        -1.98
##  5 Afghanistan  1972      740.       -11.5 
##  6 Afghanistan  1977      786.         6.23
##  7 Afghanistan  1982      978.        24.4 
##  8 Afghanistan  1987      852.       -12.8 
##  9 Afghanistan  1992      649.       -23.8 
## 10 Afghanistan  1997      635.        -2.16
## # ... with 1,694 more rows
```
…
Then, create a new variable for the ordered life expectancy using `min_rank()` and list the first few countries: 

```r
europe %>% 
  group_by(year) %>% 
  mutate(le_rank = min_rank(lifeExp)) %>% 
  filter(le_rank < 3) %>% 
  arrange(year)
```

```
## # A tibble: 24 x 4
## # Groups:   year [12]
##     year country                lifeExp le_rank
##    <int> <fct>                    <dbl>   <int>
##  1  1952 Bosnia and Herzegovina    53.8       2
##  2  1952 Turkey                    43.6       1
##  3  1957 Bosnia and Herzegovina    58.4       2
##  4  1957 Turkey                    48.1       1
##  5  1962 Bosnia and Herzegovina    61.9       2
##  6  1962 Turkey                    52.1       1
##  7  1967 Bosnia and Herzegovina    64.8       2
##  8  1967 Turkey                    54.3       1
##  9  1972 Bosnia and Herzegovina    67.4       2
## 10  1972 Turkey                    57.0       1
## # ... with 14 more rows
```

Do the same for the highest life expectancy countries: 

```r
europe %>% group_by(year) %>% 
  mutate(le_desc_rank = min_rank(desc(lifeExp))) %>% 
  filter(le_desc_rank < 3) %>% 
  arrange(year)
```

```
## # A tibble: 24 x 4
## # Groups:   year [12]
##     year country lifeExp le_desc_rank
##    <int> <fct>     <dbl>        <int>
##  1  1952 Iceland    72.5            2
##  2  1952 Norway     72.7            1
##  3  1957 Iceland    73.5            1
##  4  1957 Norway     73.4            2
##  5  1962 Iceland    73.7            1
##  6  1962 Norway     73.5            2
##  7  1967 Norway     74.1            2
##  8  1967 Sweden     74.2            1
##  9  1972 Iceland    74.5            2
## 10  1972 Sweden     74.7            1
## # ... with 14 more rows
```
…
```r
trdata1_long <- pivot_longer(trdata1, c(`y2005`, `y2010`, `y2015`), names_to = "year", values_to = "values", names_prefix = "y")
trdata1_long
```

```
## # A tibble: 36 x 5
##    province plaka variable   year     values
##    <chr>    <dbl> <chr>      <chr>     <dbl>
##  1 Istanbul    34 GDPpc      2005     16749 
##  2 Istanbul    34 GDPpc      2010     26253 
##  3 Istanbul    34 GDPpc      2015     49773 
##  4 Istanbul    34 RGDPpc     2005     13986 
##  5 Istanbul    34 RGDPpc     2010     14384 
##  6 Istanbul    34 RGDPpc     2015     18602.
##  7 Istanbul    34 GDPpc_USD  2005     12428 
##  8 Istanbul    34 GDPpc_USD  2010     17480 
##  9 Istanbul    34 GDPpc_USD  2015     18343 
## 10 Istanbul    34 population 2005  12000000 
## # ... with 26 more rows
```
…
```r
# Find and list provinces having the smallest density in 2019
trpop %>% filter(year==2019) %>% 
  arrange(density2)
```

```
## # A tibble: 81 x 9
## # Groups:   province [81]
##    province   year population density growth  area  area2 density2 growth2
##    <chr>     <dbl>      <dbl>   <dbl>  <dbl> <dbl>  <dbl>    <dbl>   <dbl>
##  1 Tunceli    2019      84660    11.4 -40.9   7432  7432      11.4  -40.1 
##  2 Ardahan    2019      97319    20.1 -16.2   4842  4842      20.1  -16.1 
##  3 Erzincan   2019     234747    20.2  -5.47 11619 11619      20.2   -5.45
##  4 Sivas      2019     638956    22.4 -11.9  28549 28549      22.4  -11.8 
##  5 Bayburt    2019      84843    22.7  30.7   3739  3739.     22.7   31.2 
##  6 Artvin     2019     170875    23.2 -18.2   7367  7367      23.2  -18.0 
##  7 Gümüşhane  2019     164521    25.6  10.8   6437  6437      25.6   10.9 
##  8 Çankırı    2019     195789    26.1 -99.9   7490  7490      26.1  -95.1 
##  9 Kars       2019     285410    28.2 -12.1  10127 10127      28.2  -12.0 
## 10 Karaman    2019     253279    28.6   5.41  8845  8845      28.6    5.42
## # ... with 71 more rows
```
…
