Introduction to Text Mining
…
## # A tibble: 2 x 2
##   sentence text                                                                 
##      <int> <chr>                                                                
## 1        1 All human beings are born free and equal in dignity and rights.      
## 2        2 They are endowed with reason and conscience and should act towards o~

Once we have a tibble containing our text data, we can tokenize it based on single words using tidytext::unnest_tokens() function.

# you need install and activate the tidytext package
library(tidytext)
#
text_data %>%
  unnest_tokens(word, text) # word is output; text is input

## # A tibble: 30 x 2
##    sentence word   
##       <int> <chr>  
##  1        1 all    
##  2        1 human  
##  3        1 beings 
##  4        1 are    
##  5        1 born   
##  6        1 free   
##  7        1 and    
##  8        1 equal  
##  9        1 in     
## 10        1 dignity
## # ... with 20 more rows

Notice that 2-by-1 text data now has 30 rows each containing a single word in the text. The data set is still in tidy format. Sentence numbers (first column) are retained but punctuation is removed after tokenization.

A token can consist of more than one word. These are also known as n-grams. An n-gram is simply a consecutive sequence of n words. A bigram, for example, is a consecutive sequence of two words.

text_data %>% 
  unnest_tokens(bigram, text, token = "ngrams", n = 2)

## # A tibble: 28 x 2
##    sentence bigram      
##       <int> <chr>       
##  1        1 all human   
##  2        1 human beings
##  3        1 beings are  
##  4        1 are born    
##  5        1 born free   
##  6        1 free and    
##  7        1 and equal   
##  8        1 equal in    
##  9        1 in dignity  
## 10        1 dignity and 
## # ... with 18 more rows

Representing a text as list or bag of its words without any regard to context and grammar is also known as bag-of-words approach.

2.2 Frequent Words and Stopwords

Lets count the words in the text data tibble text_data:

text_data_tidy <- text_data %>%
                  unnest_tokens(word, text) 
# count
text_data_tidy %>%
  count(word, sort = TRUE)

## # A tibble: 25 x 2
##    word            n
##    <chr>       <int>
##  1 and             4
##  2 are             2
##  3 in              2
##  4 a               1
##  5 act             1
##  6 all             1
##  7 another         1
##  8 beings          1
##  9 born            1
## 10 brotherhood     1
## # ... with 15 more rows

Not surprisingly, the most frequent words are common words like the, a, and, are, is which are not useful for analysis. These are known as stopwords. We can easily remove them before the analysis. To do this, we need a list of stopwords. Here is a list of stop words in the {stopwords} package:

library(stopwords)
get_stopwords()

## # A tibble: 175 x 2
##    word      lexicon 
##    <chr>     <chr>   
##  1 i         snowball
##  2 me        snowball
##  3 my        snowball
##  4 myself    snowball
##  5 we        snowball
##  6 our       snowball
##  7 ours      snowball
##  8 ourselves snowball
##  9 you       snowball
## 10 your      snowball
## # ... with 165 more rows
…
An example of Turkish stop words:

Sys.setlocale("LC_ALL", "turkish") # you may not need this

## [1] "LC_COLLATE=Turkish_Turkey.1254;LC_CTYPE=Turkish_Turkey.1254;LC_MONETARY=Turkish_Turkey.1254;LC_NUMERIC=C;LC_TIME=Turkish_Turkey.1254"

# Turkish stop words in stopwords package
get_stopwords(language = "tr", source = "stopwords-iso")

## # A tibble: 471 x 2
##    word       lexicon      
##    <chr>      <chr>        
##  1 acaba      stopwords-iso
##  2 acep       stopwords-iso
##  3 aka     stopwords-iso
##  4 akas   stopwords-iso
##  5 adamakll stopwords-iso
##  6 adeta      stopwords-iso
##  7 ait        stopwords-iso
##  8 alt       stopwords-iso
##  9 altm     stopwords-iso
## 10 ama        stopwords-iso
## # ... with 461 more rows
…
library(tidyverse)
library(tidytext)
# Download H.G. Wells' Time Machine using gutenbergr package
library(gutenbergr)
time_machine <- gutenberg_download(35)
tidy_time_machine <- time_machine %>%
  unnest_tokens(word, text) %>%
  anti_join(stop_words)
# word count
time_wordcloud_df <- tidy_time_machine %>%
    count(word, sort = TRUE)
time_wordcloud_df

## # A tibble: 4,172 x 2
##    word          n
##    <chr>     <int>
##  1 time        207
##  2 machine      88
##  3 white        61
##  4 traveller    57
##  5 hand         49
##  6 morlocks     48
##  7 people       46
##  8 weena        46
##  9 found        44
## 10 light        43
## # ... with 4,162 more rows
…
See below for additional examples.

2.4 Sentiment Analysis

In sentiment analysis, we are interested in identifying emotional content of a text. In particular, we aim to understand if a given text or a section of a text can be characterized as positive or negative, or can be classified into certain kinds of emotions. One way to achieve this is to analyze the sentiment content of individual words. In order to do this we need to employ a sentiment lexicon. There are three general-purpose sentiment lexicons in tidytext package:

AFINN from Finn rup Nielsen: assigns words with a score that runs between -5 and 5, with negative scores indicating negative sentiment and positive scores indicating positive sentiment.

library(tidytext)
library(textdata)
get_sentiments("afinn")

## # A tibble: 2,477 x 2
##    word       value
##    <chr>      <dbl>
##  1 abandon       -2
##  2 abandoned     -2
##  3 abandons      -2
##  4 abducted      -2
##  5 abduction     -2
##  6 abductions    -2
##  7 abhor         -3
##  8 abhorred      -3
##  9 abhorrent     -3
## 10 abhors        -3
## # ... with 2,467 more rows

bing from Bing Liu and collaborators: categorizes words in a binary fashion into positive and negative categories.

get_sentiments("bing")

## # A tibble: 6,786 x 2
##    word        sentiment
##    <chr>       <chr>    
##  1 2-faces     negative 
##  2 abnormal    negative 
##  3 abolish     negative 
##  4 abominable  negative 
##  5 abominably  negative 
##  6 abominate   negative 
##  7 abomination negative 
##  8 abort       negative 
##  9 aborted     negative 
## 10 aborts      negative 
## # ... with 6,776 more rows

nrc from Saif Mohammad and Peter Turney: categorizes words in a binary fashion (yes/no) into categories of positive, negative, anger, anticipation, disgust, fear, joy, sadness, surprise, and trust.

get_sentiments("nrc")

## # A tibble: 13,875 x 2
##    word        sentiment
##    <chr>       <chr>    
##  1 abacus      trust    
##  2 abandon     fear     
##  3 abandon     negative 
##  4 abandon     sadness  
##  5 abandoned   anger    
##  6 abandoned   fear     
##  7 abandoned   negative 
##  8 abandoned   sadness  
##  9 abandonment anger    
## 10 abandonment fear     
## # ... with 13,865 more rows
…
nrc_positive <- get_sentiments("nrc") %>% 
  filter(sentiment == "positive")
nrc_positive

## # A tibble: 2,308 x 2
##    word           sentiment
##    <chr>          <chr>    
##  1 abba           positive 
##  2 ability        positive 
##  3 abovementioned positive 
##  4 absolute       positive 
##  5 absolution     positive 
##  6 absorbed       positive 
##  7 abundance      positive 
##  8 abundant       positive 
##  9 academic       positive 
## 10 academy        positive 
## # ... with 2,298 more rows
…
## # A tibble: 2 x 2
##   sentiment     n
##   <chr>     <int>
## 1 negative   1347
## 2 positive    638

# sentiment types in nrc lexicon 
time_machine_sentiment_nrc <- tidy_time_machine %>% 
  inner_join(get_sentiments("nrc")) 
time_machine_sentiment_nrc

## # A tibble: 6,787 x 3
##    gutenberg_id word    sentiment   
##           <int> <chr>   <chr>       
##  1           35 time    anticipation
##  2           35 machine trust       
##  3           35 machine trust       
##  4           35 time    anticipation
##  5           35 time    anticipation
##  6           35 sunset  anticipation
##  7           35 sunset  positive    
##  8           35 sudden  surprise    
##  9           35 shock   anger       
## 10           35 shock   fear        
## # ... with 6,777 more rows
…
3.1 Frequent words

Remove stop words:

data(stop_words)

j_austen_books_tidy <- j_austen_books_tidy %>%
  anti_join(stop_words)

Count word frequency:

j_austen_books_tidy %>%
  count(word, sort = TRUE)

## # A tibble: 13,914 x 2
##    word       n
##    <chr>  <int>
##  1 miss    1855
##  2 time    1337
##  3 fanny    862
##  4 dear     822
##  5 lady     817
##  6 sir      806
##  7 day      797
##  8 emma     787
##  9 sister   727
## 10 house    699
## # ... with 13,904 more rows
…
book_words <- austen_books() %>%
  unnest_tokens(word, text) %>%
  count(book, word, sort = TRUE)

total_words <- book_words %>% 
  group_by(book) %>% 
  summarize(total = sum(n))

book_words <- left_join(book_words, total_words)

book_words

## # A tibble: 40,379 x 4
##    book              word      n  total
##    <fct>             <chr> <int>  <int>
##  1 Mansfield Park    the    6206 160460
##  2 Mansfield Park    to     5475 160460
##  3 Mansfield Park    and    5438 160460
##  4 Emma              to     5239 160996
##  5 Emma              the    5201 160996
##  6 Emma              and    4896 160996
##  7 Mansfield Park    of     4778 160460
##  8 Pride & Prejudice the    4331 122204
##  9 Emma              of     4291 160996
## 10 Pride & Prejudice to     4162 122204
## # ... with 40,369 more rows
…
# long right tail is truncated at 0.0009

Compute tf-idf:

book_tf_idf <- book_words %>%
  bind_tf_idf(word, book, n)

book_tf_idf

## # A tibble: 40,379 x 7
##    book              word      n  total     tf   idf tf_idf
##    <fct>             <chr> <int>  <int>  <dbl> <dbl>  <dbl>
##  1 Mansfield Park    the    6206 160460 0.0387     0      0
##  2 Mansfield Park    to     5475 160460 0.0341     0      0
##  3 Mansfield Park    and    5438 160460 0.0339     0      0
##  4 Emma              to     5239 160996 0.0325     0      0
##  5 Emma              the    5201 160996 0.0323     0      0
##  6 Emma              and    4896 160996 0.0304     0      0
##  7 Mansfield Park    of     4778 160460 0.0298     0      0
##  8 Pride & Prejudice the    4331 122204 0.0354     0      0
##  9 Emma              of     4291 160996 0.0267     0      0
## 10 Pride & Prejudice to     4162 122204 0.0341     0      0
## # ... with 40,369 more rows

Common and unimportant words have zero tfidf values.

book_tf_idf %>%
  select(-total) %>%
  arrange(desc(tf_idf))

## # A tibble: 40,379 x 6
##    book                word          n      tf   idf  tf_idf
##    <fct>               <chr>     <int>   <dbl> <dbl>   <dbl>
##  1 Sense & Sensibility elinor      623 0.00519  1.79 0.00931
##  2 Sense & Sensibility marianne    492 0.00410  1.79 0.00735
##  3 Mansfield Park      crawford    493 0.00307  1.79 0.00551
##  4 Pride & Prejudice   darcy       373 0.00305  1.79 0.00547
##  5 Persuasion          elliot      254 0.00304  1.79 0.00544
##  6 Emma                emma        786 0.00488  1.10 0.00536
##  7 Northanger Abbey    tilney      196 0.00252  1.79 0.00452
##  8 Emma                weston      389 0.00242  1.79 0.00433
##  9 Pride & Prejudice   bennet      294 0.00241  1.79 0.00431
## 10 Persuasion          wentworth   191 0.00228  1.79 0.00409
## # ... with 40,369 more rows
…
We can also combine these two data set into single corpus:

fomc_tidy <- rbind(fomc_2017_tidy, fomc_2020_tidy)
# could use full_join() as well 
# fomc_tidy <- full_join(fomc_2017_tidy, fomc_2020_tidy)

4.2 Word frequency

# count how many times each word is used in 2017
fomc_2017_tidy %>%
  count(word, sort = TRUE)

## # A tibble: 355 x 2
##    word          n
##    <chr>     <int>
##  1 the          66
##  2 to           37
##  3 of           36
##  4 and          31
##  5 in           22
##  6 federal      21
##  7 market       16
##  8 committee    15
##  9 inflation    13
## 10 rate         13
## # ... with 345 more rows

# remove stopwords
fomc_2017_tidy %>%
  anti_join(get_stopwords()) %>%
  count(word, sort=TRUE)

## # A tibble: 309 x 2
##    word           n
##    <chr>      <int>
##  1 federal       21
##  2 market        16
##  3 committee     15
##  4 inflation     13
##  5 rate          13
##  6 open          10
##  7 percent       10
##  8 policy        10
##  9 securities     9
## 10 funds          8
## # ... with 299 more rows
…
# 2020
wordcloud_df_2020 <-fomc_2020_tidy %>%
  anti_join(get_stopwords()) %>%
  inner_join(get_sentiments("bing")) %>%
  count(sentiment, word, sort = T) %>%
  top_n(100)
wordcloud_df_2020

## # A tibble: 24 x 3
##    sentiment word            n
##    <chr>     <chr>       <int>
##  1 positive  support         6
##  2 positive  effective       4
##  3 positive  appropriate     3
##  4 positive  smooth          3
##  5 negative  limit           2
##  6 positive  stability       2
##  7 negative  challenging     1
##  8 negative  crisis          1
##  9 negative  debt            1
## 10 negative  declines        1
## # ... with 14 more rows
…
tf-idf analysis:

# count the frequency of each word 
# and add total words in each document (year)
fomc_words <- fomc_tidy %>% 
  add_count(year, name = "total_words") %>%
  group_by(year, total_words) %>% 
  count(word, sort = TRUE) %>% 
  ungroup()
#
fomc_words

## # A tibble: 663 x 4
##     year total_words word        n
##    <dbl>       <int> <chr>   <int>
##  1  2017         908 the        66
##  2  2020         804 the        65
##  3  2020         804 and        40
##  4  2017         908 to         37
##  5  2017         908 of         36
##  6  2020         804 to         35
##  7  2020         804 of         34
##  8  2017         908 and        31
##  9  2017         908 in         22
## 10  2017         908 federal    21
## # ... with 653 more rows
…
Use tidytext::bind_tf_idf() function:

fomc_words_idf <- fomc_words %>% 
  select(-total_words) %>%
  bind_tf_idf(term = word, document = year, n = n)
fomc_words_idf

## # A tibble: 663 x 6
##     year word        n     tf   idf tf_idf
##    <dbl> <chr>   <int>  <dbl> <dbl>  <dbl>
##  1  2017 the        66 0.0727     0      0
##  2  2020 the        65 0.0808     0      0
##  3  2020 and        40 0.0498     0      0
##  4  2017 to         37 0.0407     0      0
##  5  2017 of         36 0.0396     0      0
##  6  2020 to         35 0.0435     0      0
##  7  2020 of         34 0.0423     0      0
##  8  2017 and        31 0.0341     0      0
##  9  2017 in         22 0.0242     0      0
## 10  2017 federal    21 0.0231     0      0
## # ... with 653 more rows

Notice that tf_idf is practically zero for the most common words (such as the, and, to, of, etc.). We could remove these stopwords before the analysis but here we kept them to demonstrate that these will be essentially zero.

fomc_words_idf %>% 
  arrange(desc(tf_idf))

## # A tibble: 663 x 6
##     year word            n      tf   idf  tf_idf
##    <dbl> <chr>       <int>   <dbl> <dbl>   <dbl>
##  1  2020 support         6 0.00746 0.693 0.00517
##  2  2020 mbs             4 0.00498 0.693 0.00345
##  3  2017 continued       4 0.00441 0.693 0.00305
##  4  2017 longer          4 0.00441 0.693 0.00305
##  5  2017 march           4 0.00441 0.693 0.00305
##  6  2020 agreement       3 0.00373 0.693 0.00259
##  7  2020 april           3 0.00373 0.693 0.00259
##  8  2020 cmbs            3 0.00373 0.693 0.00259
##  9  2020 economy         3 0.00373 0.693 0.00259
## 10  2020 functioning     3 0.00373 0.693 0.00259
## # ... with 653 more rows
…
